<svg xmlns="http://www.w3.org/2000/svg" width="12" height="14" viewBox="0 0 12 14">
  <text id="_" data-name="" transform="translate(6 12)" fill="#fff" font-size="14" font-family="FontAwesome5Brands-Regular, 'Font Awesome 5 Brands'"><tspan x="-5.25" y="0"></tspan></text>
</svg>
